dump.vcd
$date
Wed Aug 16 03:48:54 2023
$end
$version
Riviera-PRO Version 2022.04.117.8517
$end
$timescale
1 ns
$end

$scope module tb $end
$var integer 32 ! count $end
$var event 1 " done $end
$var event 1 # drvnext $end
$var event 1 $ sconext $end

$scope module vif $end
$var reg 1 % awvalid $end
$var reg 1 & awready $end
$var reg 4 ' awid [3:0] $end
$var reg 4 ( awlen [3:0] $end
$var reg 3 ) awsize [2:0] $end
$var reg 32 * awaddr [31:0] $end
$var reg 2 + awburst [1:0] $end
$var reg 1 , wvalid $end
$var reg 1 - wready $end
$var reg 4 . wid [3:0] $end
$var reg 32 / wdata [31:0] $end
$var reg 4 0 wstrb [3:0] $end
$var reg 1 1 wlast $end
$var reg 1 2 bready $end
$var reg 1 3 bvalid $end
$var reg 4 4 bid [3:0] $end
$var reg 2 5 bresp [1:0] $end
$var reg 1 6 arvalid $end
$var reg 1 7 arready $end
$var reg 4 8 arid [3:0] $end
$var reg 4 9 arlen [3:0] $end
$var reg 3 : arsize [2:0] $end
$var reg 32 ; araddr [31:0] $end
$var reg 2 < arburst [1:0] $end
$var reg 1 = rvalid $end
$var reg 1 > rready $end
$var reg 4 ? rid [3:0] $end
$var reg 32 @ rdata [31:0] $end
$var reg 4 A rstrb [3:0] $end
$var reg 1 B rlast $end
$var reg 2 C rresp [1:0] $end
$var reg 1 D clk $end
$var reg 1 E resetn $end
$var reg 32 F addr_wrapwr [31:0] $end
$var reg 32 G addr_wraprd [31:0] $end
$upscope $end


$scope module dut $end
$var wire 1 H clk $end
$var wire 1 I resetn $end
$var wire 1 J awvalid $end
$var wire 4 K awid [3:0] $end
$var wire 4 L awlen [3:0] $end
$var wire 3 M awsize [2:0] $end
$var wire 32 N awaddr [31:0] $end
$var wire 2 O awburst [1:0] $end
$var wire 1 P wvalid $end
$var wire 4 Q wid [3:0] $end
$var wire 32 R wdata [31:0] $end
$var wire 4 S wstrb [3:0] $end
$var wire 1 T wlast $end
$var wire 1 U bready $end
$var wire 4 V arid [3:0] $end
$var wire 32 W araddr [31:0] $end
$var wire 4 X arlen [3:0] $end
$var wire 3 Y arsize [2:0] $end
$var wire 2 Z arburst [1:0] $end
$var wire 1 [ arvalid $end
$var wire 1 \ rready $end
$var reg 1 ] awready $end
$var reg 1 ^ wready $end
$var reg 1 _ bvalid $end
$var reg 4 ` bid [3:0] $end
$var reg 2 a bresp [1:0] $end
$var reg 1 b arready $end
$var reg 4 c rid [3:0] $end
$var reg 32 d rdata [31:0] $end
$var reg 2 e rresp [1:0] $end
$var reg 1 f rlast $end
$var reg 1 g rvalid $end
$var reg 2 h awstate $end
$var reg 2 i awnext_state $end
$var reg 32 j awaddrt [31:0] $end
$var reg 32 k wdatat [31:0] $end
$var reg 32 l retaddr [31:0] $end
$var reg 32 m nextaddr [31:0] $end
$var reg 1 n first $end
$var reg 8 o boundary [7:0] $end
$var reg 4 p wlen_count [3:0] $end
$var reg 3 q wstate $end
$var reg 3 r wnext_state $end
$var reg 2 s bstate $end
$var reg 2 t bnext_state $end
$var reg 2 u arstate $end
$var reg 2 v arnext_state $end
$var reg 32 w araddrt [31:0] $end
$var reg 1 x rdfirst $end
$var reg 32 y rdnextaddr [31:0] $end
$var reg 32 z rdretaddr [31:0] $end
$var reg 4 { len_count [3:0] $end
$var reg 8 | rdboundary [7:0] $end
$var reg 3 } rstate $end
$var reg 3 ~ rnext_state $end

$scope function data_wr_fixed $end
$var reg 4 !! wstrb [3:0] $end
$var reg 32 "! awaddrt [31:0] $end
$var reg 32 #! data_wr_fixed [31:0] $end
$upscope $end


$scope function data_wr_incr $end
$var reg 4 $! wstrb [3:0] $end
$var reg 32 %! awaddrt [31:0] $end
$var reg 32 &! data_wr_incr [31:0] $end
$var reg 32 '! addr [31:0] $end
$upscope $end


$scope function wrap_boundary $end
$var reg 4 (! awlen [3:0] $end
$var reg 3 )! awsize [2:0] $end
$var reg 8 *! wrap_boundary [7:0] $end
$var reg 8 +! boundary [7:0] $end
$upscope $end


$scope function data_wr_wrap $end
$var reg 4 ,! wstrb [3:0] $end
$var reg 32 -! awaddrt [31:0] $end
$var reg 8 .! wboundary [7:0] $end
$var reg 32 /! data_wr_wrap [31:0] $end
$var reg 32 0! addr1 [31:0] $end
$var reg 32 1! addr2 [31:0] $end
$var reg 32 2! addr3 [31:0] $end
$var reg 32 3! addr4 [31:0] $end
$var reg 32 4! nextaddr [31:0] $end
$var reg 32 5! nextaddr2 [31:0] $end
$upscope $end


$scope function read_data_fixed $end
$var reg 32 6! addr [31:0] $end
$var reg 3 7! arsize [2:0] $end
$upscope $end


$scope function read_data_incr $end
$var reg 32 8! addr [31:0] $end
$var reg 3 9! arsize [2:0] $end
$var reg 32 :! read_data_incr [31:0] $end
$var reg 32 ;! nextaddr [31:0] $end
$upscope $end


$scope function read_data_wrap $end
$var reg 32 <! addr [31:0] $end
$var reg 3 =! rsize [2:0] $end
$var reg 8 >! rboundary [7:0] $end
$var reg 32 ?! read_data_wrap [31:0] $end
$var reg 32 @! addr1 [31:0] $end
$var reg 32 A! addr2 [31:0] $end
$var reg 32 B! addr3 [31:0] $end
$var reg 32 C! addr4 [31:0] $end
$upscope $end

$upscope $end


$scope task @FORK#45_0@ $end
$upscope $end


$scope task @FORK#46_1@ $end
$upscope $end


$scope task @FORK#47_2@ $end
$upscope $end


$scope task @FORK#48_3@ $end
$upscope $end

$upscope $end

$enddefinitions $end
$dumpvars
b101 !
0%
0&
b0 '
b0 (
b0 )
b0 *
b0 +
0,
0-
b0 .
b0 /
b0 0
01
02
03
b0 4
b0 5
06
07
b0 8
b0 9
b0 :
b0 ;
b0 <
0=
x>
b0 ?
b0 @
bx A
0B
b0 C
0D
0E
bx F
b0 G
0H
0I
0J
b0 K
b0 L
b0 M
b0 N
b0 O
0P
b0 Q
b0 R
b0 S
0T
0U
b0 V
b0 W
b0 X
b0 Y
b0 Z
0[
x\
0]
0^
0_
b0 `
b0 a
0b
b0 c
b0 d
b0 e
0f
0g
b0 h
b1 i
bx j
bx k
bx l
bx m
0n
bx o
b0 p
b0 q
b1 r
b0 s
b1 t
b0 u
b1 v
bx w
0x
b0 y
b0 z
b0 {
bx |
b0 }
b0 ~
bx !!
bx "!
b0 #!
bx $!
bx %!
b0 &!
b0 '!
b0 (!
b0 )!
b0 *!
b0 +!
bx ,!
bx -!
bx .!
b0 /!
b0 0!
b0 1!
b0 2!
b0 3!
b0 4!
b0 5!
bx 6!
bx 7!
bx 8!
bx 9!
b0 :!
b0 ;!
b0 <!
b0 =!
bx >!
b0 ?!
b0 @!
b0 A!
b0 B!
b0 C!
$end
#5
1D
1H
#10
0D
0H
#15
1D
1H
#20
0D
0H
#25
1D
1H
#30
0D
0H
#35
1D
1H
#40
0D
0H
#45
1D
1H
1E
1I
#50
0D
0H
#55
1D
1H
1$
1%
b10 (
b10 )
1,
b1111 0
12
b101 *
b101 /
b1 h
b1 q
b1 s
b1 u
b101 R
b101 N
1U
b1111 S
1P
b10 M
b10 L
1J
b10 i
b101 j
b100 r
b101 k
#60
0D
0H
#65
1D
1H
b10 h
b100 q
1]
b0 i
b10 r
b101 m
1n
1&
#70
0D
0H
#75
1D
1H
b0 h
b10 q
0]
b1 i
b11 r
1^
b1111 !!
b101 "!
b101 #!
b101 l
0&
1-
b101 F
#80
0D
0H
#85
1D
1H
b11111 /
b1 h
b11 q
b11111 R
b10 i
0^
b1 r
b1 p
0-
#90
0D
0H
#95
1D
1H
b10 h
b1 q
1]
b0 i
b100 r
b11111 k
1&
#100
0D
0H
#105
1D
1H
b0 h
b100 q
0]
b1 i
b10 r
0&
#110
0D
0H
#115
1D
1H
b1 h
b10 q
b10 i
b11 r
1^
1-
#120
0D
0H
#125
1D
1H
b10001 /
b10 h
b11 q
b10001 R
1]
b0 i
0^
b1 r
b10 p
1&
0-
#130
0D
0H
#135
1D
1H
b0 h
b1 q
0]
b1 i
b100 r
b10001 k
0&
#140
0D
0H
#145
1D
1H
b1 h
b100 q
b10 i
b10 r
#150
0D
0H
#155
1D
1H
b10 h
b10 q
1]
b0 i
b11 r
1^
1&
1-
#160
0D
0H
#165
1D
1H
11
0%
0,
b0 h
b11 q
0P
0J
1T
0]
b1 i
0^
b1 r
b11 p
b10 t
0&
0-
#170
0D
0H
#175
1D
1H
01
b1 h
b1 q
b10 s
0T
1_
b11 t
13
#180
0D
0H
#185
1D
1H
b11 s
b0 t
#190
0D
0H
#195
1D
1H
b0 s
0_
b1 t
03
1#
#200
0D
0H
#205
1D
1H
1$
b1 s
#210
0D
0H
#215
1D
1H
1$
1%
b1010 '
b1000 (
1,
b1010 .
b1011111 /
b1011111 R
b1010 Q
1P
b1000 L
b1010 K
1J
b100 r
b1011111 k
b10 i
#220
0D
0H
#225
1D
1H
b10 h
b100 q
1]
b0 i
b10 r
1&
#230
0D
0H
#235
1D
1H
b0 h
b10 q
0]
b1 i
b11 r
1^
0&
1-
#240
0D
0H
#245
1D
1H
b1110 /
b1 h
b11 q
b1110 R
b10 i
0^
b1 r
b100 p
0-
#250
0D
0H
#255
1D
1H
b10 h
b1 q
1]
b0 i
b100 r
b1110 k
1&
#260
0D
0H
#265
1D
1H
b0 h
b100 q
0]
b1 i
b10 r
0&
#270
0D
0H
#275
1D
1H
b1 h
b10 q
b10 i
b11 r
1^
1-
#280
0D
0H
#285
1D
1H
b11 /
b10 h
b11 q
b11 R
1]
b0 i
0^
b1 r
b101 p
1&
0-
#290
0D
0H
#295
1D
1H
b0 h
b1 q
0]
b1 i
b100 r
b11 k
0&
#300
0D
0H
#305
1D
1H
b1 h
b100 q
b10 i
b10 r
#310
0D
0H
#315
1D
1H
b10 h
b10 q
1]
b0 i
b11 r
1^
1&
1-
#320
0D
0H
#325
1D
1H
b11001 /
b0 h
b11 q
b11001 R
0]
b1 i
0^
b1 r
b110 p
0&
0-
#330
0D
0H
#335
1D
1H
b1 h
b1 q
b10 i
b100 r
b11001 k
#340
0D
0H
#345
1D
1H
b10 h
b100 q
1]
b0 i
b10 r
1&
#350
0D
0H
#355
1D
1H
b0 h
b10 q
0]
b1 i
b11 r
1^
0&
1-
#360
0D
0H
#365
1D
1H
b1010111 /
b1 h
b11 q
b1010111 R
b10 i
0^
b1 r
b111 p
0-
#370
0D
0H
#375
1D
1H
b10 h
b1 q
1]
b0 i
b100 r
b1010111 k
1&
#380
0D
0H
#385
1D
1H
b0 h
b100 q
0]
b1 i
b10 r
0&
#390
0D
0H
#395
1D
1H
b1 h
b10 q
b10 i
b11 r
1^
1-
#400
0D
0H
#405
1D
1H
b111100 /
b10 h
b11 q
b111100 R
1]
b0 i
0^
b1 r
b1000 p
1&
0-
#410
0D
0H
#415
1D
1H
b0 h
b1 q
0]
b1 i
b100 r
b111100 k
0&
#420
0D
0H
#425
1D
1H
b1 h
b100 q
b10 i
b10 r
#430
0D
0H
#435
1D
1H
b10 h
b10 q
1]
b0 i
b11 r
1^
1&
1-
#440
0D
0H
#445
1D
1H
b1001110 /
b0 h
b11 q
b1001110 R
0]
b1 i
0^
b1 r
b1001 p
0&
0-
#450
0D
0H
#455
1D
1H
b1 h
b1 q
b10 i
b100 r
b1001110 k
#460
0D
0H
#465
1D
1H
b10 h
b100 q
1]
b0 i
b10 r
1&
#470
0D
0H
#475
1D
1H
b0 h
b10 q
0]
b1 i
b11 r
1^
0&
1-
#480
0D
0H
#485
1D
1H
b110000 /
b1 h
b11 q
b110000 R
b10 i
0^
b1 r
0-
#490
0D
0H
#495
1D
1H
b10 h
b1 q
1]
b0 i
b100 r
b110000 k
1&
#500
0D
0H
#505
1D
1H
b0 h
b100 q
0]
b1 i
b10 r
0&
#510
0D
0H
#515
1D
1H
b1 h
b10 q
b10 i
b11 r
1^
1-
#520
0D
0H
#525
1D
1H
b1000100 /
b10 h
b11 q
b1000100 R
1]
b0 i
0^
b1 r
1&
0-
#530
0D
0H
#535
1D
1H
b0 h
b1 q
0]
b1 i
b100 r
b1000100 k
0&
#540
0D
0H
#545
1D
1H
b1 h
b100 q
b10 i
b10 r
#550
0D
0H
#555
1D
1H
b10 h
b10 q
1]
b0 i
b11 r
1^
1&
1-
#560
0D
0H
#565
1D
1H
11
0%
0,
b0 h
b11 q
0P
0J
1T
0]
b1 i
0^
b1 r
b10 t
0&
0-
#570
0D
0H
#575
1D
1H
01
b1 h
b1 q
b10 s
0T
b1010 `
1_
b11 t
b1010 4
13
#580
0D
0H
#585
1D
1H
b11 s
b0 t
#590
0D
0H
#595
1D
1H
b0 s
b0 `
0_
b1 t
b0 4
03
1#
#600
0D
0H
#605
1D
1H
1$
b1 s
#610
0D
0H
#615
1D
1H
1$
16
b1110 8
b100 9
b10 :
1>
b100 ;
b100 W
1\
b10 Y
b100 X
b1110 V
1[
b10 v
b100 w
b1 ~
#620
0D
0H
#625
1D
1H
b10 u
b1 }
b0 v
1b
b1110 c
1g
b10 ~
b100 y
1x
b100 6!
b10 7!
b100010000001100 d
17
b1110 ?
1=
b100010000001100 @
#630
0D
0H
#635
1D
1H
b0 u
b10 }
0b
b1 v
0g
b1 {
b11 ~
07
0=
#640
0D
0H
#645
1D
1H
b1 u
b11 }
b10 v
b1 ~
#650
0D
0H
#655
1D
1H
b10 u
b1 }
b0 v
1b
1g
b10 ~
17
1=
#660
0D
0H
#665
1D
1H
b0 u
b10 }
0b
b1 v
0g
b10 {
b11 ~
07
0=
#670
0D
0H
#675
1D
1H
b1 u
b11 }
b10 v
b1 ~
#680
0D
0H
#685
1D
1H
b10 u
b1 }
b0 v
1b
1g
b10 ~
17
1=
#690
0D
0H
#695
1D
1H
b0 u
b10 }
0b
b1 v
0g
b11 {
b11 ~
07
0=
#700
0D
0H
#705
1D
1H
b1 u
b11 }
b10 v
b1 ~
#710
0D
0H
#715
1D
1H
b10 u
b1 }
b0 v
1b
1g
b10 ~
17
1=
#720
0D
0H
#725
1D
1H
b0 u
b10 }
0b
b1 v
0g
b100 {
b11 ~
07
0=
#730
0D
0H
#735
1D
1H
b1 u
b11 }
b10 v
b1 ~
#740
0D
0H
#745
1D
1H
b10 u
b1 }
b0 v
1b
1g
b10 ~
17
1=
#750
0D
0H
#755
1D
1H
b0 u
b10 }
0b
b1 v
0g
b101 {
b11 ~
1f
07
0=
1B
#760
0D
0H
#765
1D
1H
b1 u
b11 }
b10 v
b0 ~
#770
0D
0H
#775
1D
1H
b10 u
b0 }
b0 v
1b
b0 c
0x
b0 d
0f
b0 {
b1 ~
17
b0 ?
b0 @
0B
1#
06
0>
0\
0[
b0 ~
#780
0D
0H
#785
1D
1H
1$
b0 u
0b
b1 v
07
#790
0D
0H
#795
1D
1H
1$
1%
b1110 '
b1111 (
1,
b1110 .
b1010001 /
b1 u
b1010001 R
b1110 Q
1P
b1111 L
b1110 K
1J
b100 r
b1010001 k
b10 i
#800
0D
0H
#805
1D
1H
b10 h
b100 q
1]
b0 i
b10 r
1&
#810
0D
0H
#815
1D
1H
b0 h
b10 q
0]
b1 i
b11 r
1^
0&
1-
#820
0D
0H
#825
1D
1H
b110111 /
b1 h
b11 q
b110111 R
b10 i
0^
b1 r
b1010 p
0-
#830
0D
0H
#835
1D
1H
b10 h
b1 q
1]
b0 i
b100 r
b110111 k
1&
#840
0D
0H
#845
1D
1H
b0 h
b100 q
0]
b1 i
b10 r
0&
#850
0D
0H
#855
1D
1H
b1 h
b10 q
b10 i
b11 r
1^
1-
#860
0D
0H
#865
1D
1H
b1001010 /
b10 h
b11 q
b1001010 R
1]
b0 i
0^
b1 r
b1011 p
1&
0-
#870
0D
0H
#875
1D
1H
b0 h
b1 q
0]
b1 i
b100 r
b1001010 k
0&
#880
0D
0H
#885
1D
1H
b1 h
b100 q
b10 i
b10 r
#890
0D
0H
#895
1D
1H
b10 h
b10 q
1]
b0 i
b11 r
1^
1&
1-
#900
0D
0H
#905
1D
1H
b10010 /
b0 h
b11 q
b10010 R
0]
b1 i
0^
b1 r
b1100 p
0&
0-
#910
0D
0H
#915
1D
1H
b1 h
b1 q
b10 i
b100 r
b10010 k
#920
0D
0H
#925
1D
1H
b10 h
b100 q
1]
b0 i
b10 r
1&
#930
0D
0H
#935
1D
1H
b0 h
b10 q
0]
b1 i
b11 r
1^
0&
1-
#940
0D
0H
#945
1D
1H
b110101 /
b1 h
b11 q
b110101 R
b10 i
0^
b1 r
b1101 p
0-
#950
0D
0H
#955
1D
1H
b10 h
b1 q
1]
b0 i
b100 r
b110101 k
1&
#960
0D
0H
#965
1D
1H
b0 h
b100 q
0]
b1 i
b10 r
0&
#970
0D
0H
#975
1D
1H
b1 h
b10 q
b10 i
b11 r
1^
1-
#980
0D
0H
#985
1D
1H
b110001 /
b10 h
b11 q
b110001 R
1]
b0 i
0^
b1 r
b1110 p
1&
0-
#990
0D
0H
#995
1D
1H
b0 h
b1 q
0]
b1 i
b100 r
b110001 k
0&
#1000
0D
0H
#1005
1D
1H
b1 h
b100 q
b10 i
b10 r
#1010
0D
0H
#1015
1D
1H
b10 h
b10 q
1]
b0 i
b11 r
1^
1&
1-
#1020
0D
0H
#1025
1D
1H
b1011111 /
b0 h
b11 q
b1011111 R
0]
b1 i
0^
b1 r
b1111 p
0&
0-
#1030
0D
0H
#1035
1D
1H
b1 h
b1 q
b10 i
b100 r
b1011111 k
#1040
0D
0H
#1045
1D
1H
b10 h
b100 q
1]
b0 i
b10 r
1&
#1050
0D
0H
#1055
1D
1H
b0 h
b10 q
0]
b1 i
b11 r
1^
0&
1-
#1060
0D
0H
#1065
1D
1H
b1001101 /
b1 h
b11 q
b1001101 R
b10 i
0^
b1 r
b0 p
0-
#1070
0D
0H
#1075
1D
1H
b10 h
b1 q
1]
b0 i
b100 r
b1001101 k
1&
#1080
0D
0H
#1085
1D
1H
b0 h
b100 q
0]
b1 i
b10 r
0&
#1090
0D
0H
#1095
1D
1H
b1 h
b10 q
b10 i
b11 r
1^
1-
#1100
0D
0H
#1105
1D
1H
b110111 /
b10 h
b11 q
b110111 R
1]
b0 i
0^
b1 r
b1 p
1&
0-
#1110
0D
0H
#1115
1D
1H
b0 h
b1 q
0]
b1 i
b100 r
b110111 k
0&
#1120
0D
0H
#1125
1D
1H
b1 h
b100 q
b10 i
b10 r
#1130
0D
0H
#1135
1D
1H
b10 h
b10 q
1]
b0 i
b11 r
1^
1&
1-
#1140
0D
0H
#1145
1D
1H
b10111 /
b0 h
b11 q
b10111 R
0]
b1 i
0^
b1 r
b10 p
0&
0-
#1150
0D
0H
#1155
1D
1H
b1 h
b1 q
b10 i
b100 r
b10111 k
#1160
0D
0H
#1165
1D
1H
b10 h
b100 q
1]
b0 i
b10 r
1&
#1170
0D
0H
#1175
1D
1H
b0 h
b10 q
0]
b1 i
b11 r
1^
0&
1-
#1180
0D
0H
#1185
1D
1H
b101110 /
b1 h
b11 q
b101110 R
b10 i
0^
b1 r
b11 p
0-
#1190
0D
0H
#1195
1D
1H
b10 h
b1 q
1]
b0 i
b100 r
b101110 k
1&
#1200
0D
0H
#1205
1D
1H
b0 h
b100 q
0]
b1 i
b10 r
0&
#1210
0D
0H
#1215
1D
1H
b1 h
b10 q
b10 i
b11 r
1^
1-
#1220
0D
0H
#1225
1D
1H
b111110 /
b10 h
b11 q
b111110 R
1]
b0 i
0^
b1 r
b100 p
1&
0-
#1230
0D
0H
#1235
1D
1H
b0 h
b1 q
0]
b1 i
b100 r
b111110 k
0&
#1240
0D
0H
#1245
1D
1H
b1 h
b100 q
b10 i
b10 r
#1250
0D
0H
#1255
1D
1H
b10 h
b10 q
1]
b0 i
b11 r
1^
1&
1-
#1260
0D
0H
#1265
1D
1H
b111 /
b0 h
b11 q
b111 R
0]
b1 i
0^
b1 r
b101 p
0&
0-
#1270
0D
0H
#1275
1D
1H
b1 h
b1 q
b10 i
b100 r
b111 k
#1280
0D
0H
#1285
1D
1H
b10 h
b100 q
1]
b0 i
b10 r
1&
#1290
0D
0H
#1295
1D
1H
b0 h
b10 q
0]
b1 i
b11 r
1^
0&
1-
#1300
0D
0H
#1305
1D
1H
b1010100 /
b1 h
b11 q
b1010100 R
b10 i
0^
b1 r
b110 p
0-
#1310
0D
0H
#1315
1D
1H
b10 h
b1 q
1]
b0 i
b100 r
b1010100 k
1&
#1320
0D
0H
#1325
1D
1H
b0 h
b100 q
0]
b1 i
b10 r
0&
#1330
0D
0H
#1335
1D
1H
b1 h
b10 q
b10 i
b11 r
1^
1-
#1340
0D
0H
#1345
1D
1H
b110100 /
b10 h
b11 q
b110100 R
1]
b0 i
0^
b1 r
b111 p
1&
0-
#1350
0D
0H
#1355
1D
1H
b0 h
b1 q
0]
b1 i
b100 r
b110100 k
0&
#1360
0D
0H
#1365
1D
1H
b1 h
b100 q
b10 i
b10 r
#1370
0D
0H
#1375
1D
1H
b10 h
b10 q
1]
b0 i
b11 r
1^
1&
1-
#1380
0D
0H
#1385
1D
1H
b11000 /
b0 h
b11 q
b11000 R
0]
b1 i
0^
b1 r
b1000 p
0&
0-
#1390
0D
0H
#1395
1D
1H
b1 h
b1 q
b10 i
b100 r
b11000 k
#1400
0D
0H
#1405
1D
1H
b10 h
b100 q
1]
b0 i
b10 r
1&
#1410
0D
0H
#1415
1D
1H
b0 h
b10 q
0]
b1 i
b11 r
1^
0&
1-
#1420
0D
0H
#1425
1D
1H
11
0%
0,
b1 h
b11 q
0P
0J
1T
0^
b1 r
b1001 p
b10 t
0-
#1430
0D
0H
#1435
1D
1H
01
b1 q
b10 s
0T
b1110 `
1_
b11 t
b1110 4
13
#1440
0D
0H
#1445
1D
1H
b11 s
b0 t
#1450
0D
0H
#1455
1D
1H
b0 s
b0 `
0_
b1 t
b0 4
03
1#
#1460
0D
0H
#1465
1D
1H
1$
b1 s
#1470
0D
0H
#1475
1D
1H
1$
16
b111 8
b111 9
1>
b101 ;
b101 W
1\
b111 X
b111 V
1[
b10 v
b101 w
b1 ~
#1480
0D
0H
#1485
1D
1H
b10 u
b1 }
b0 v
1b
b111 c
1g
b10 ~
b101 y
1x
b101 6!
b11000 d
17
b111 ?
1=
b11000 @
#1490
0D
0H
#1495
1D
1H
b0 u
b10 }
0b
b1 v
0g
b1 {
b11 ~
07
0=
#1500
0D
0H
#1505
1D
1H
b1 u
b11 }
b10 v
b1 ~
#1510
0D
0H
#1515
1D
1H
b10 u
b1 }
b0 v
1b
1g
b10 ~
17
1=
#1520
0D
0H
#1525
1D
1H
b0 u
b10 }
0b
b1 v
0g
b10 {
b11 ~
07
0=
#1530
0D
0H
#1535
1D
1H
b1 u
b11 }
b10 v
b1 ~
#1540
0D
0H
#1545
1D
1H
b10 u
b1 }
b0 v
1b
1g
b10 ~
17
1=
#1550
0D
0H
#1555
1D
1H
b0 u
b10 }
0b
b1 v
0g
b11 {
b11 ~
07
0=
#1560
0D
0H
#1565
1D
1H
b1 u
b11 }
b10 v
b1 ~
#1570
0D
0H
#1575
1D
1H
b10 u
b1 }
b0 v
1b
1g
b10 ~
17
1=
#1580
0D
0H
#1585
1D
1H
b0 u
b10 }
0b
b1 v
0g
b100 {
b11 ~
07
0=
#1590
0D
0H
#1595
1D
1H
b1 u
b11 }
b10 v
b1 ~
#1600
0D
0H
#1605
1D
1H
b10 u
b1 }
b0 v
1b
1g
b10 ~
17
1=
#1610
0D
0H
#1615
1D
1H
b0 u
b10 }
0b
b1 v
0g
b101 {
b11 ~
07
0=
#1620
0D
0H
#1625
1D
1H
b1 u
b11 }
b10 v
b1 ~
#1630
0D
0H
#1635
1D
1H
b10 u
b1 }
b0 v
1b
1g
b10 ~
17
1=
#1640
0D
0H
#1645
1D
1H
b0 u
b10 }
0b
b1 v
0g
b110 {
b11 ~
07
0=
#1650
0D
0H
#1655
1D
1H
b1 u
b11 }
b10 v
b1 ~
#1660
0D
0H
#1665
1D
1H
b10 u
b1 }
b0 v
1b
1g
b10 ~
17
1=
#1670
0D
0H
#1675
1D
1H
b0 u
b10 }
0b
b1 v
0g
b111 {
b11 ~
07
0=
#1680
0D
0H
#1685
1D
1H
b1 u
b11 }
b10 v
b1 ~
#1690
0D
0H
#1695
1D
1H
b10 u
b1 }
b0 v
1b
1g
b10 ~
17
1=
#1700
0D
0H
#1705
1D
1H
b0 u
b10 }
0b
b1 v
0g
b1000 {
b11 ~
1f
07
0=
1B
#1710
0D
0H
#1715
1D
1H
b1 u
b11 }
b10 v
b0 ~
#1720
0D
0H
#1725
1D
1H
b10 u
b0 }
b0 v
1b
b0 c
0x
b0 d
0f
b0 {
b1 ~
17
b0 ?
b0 @
0B
1#
06
0>
0\
0[
b0 ~
#1730
0D
0H
#1735
1D
1H
1$
b0 u
0b
b1 v
07
#1740
0D
0H
#1745
1D
1H
1$
16
b1101 8
b1 9
1>
b100 ;
b1 u
b100 W
1\
b1 X
b1101 V
1[
b10 v
b100 w
b1 ~
#1750
0D
0H
#1755
1D
1H
b10 u
b1 }
b0 v
1b
b1101 c
1g
b10 ~
b100 y
1x
b100 6!
b1100000001100 d
17
b1101 ?
1=
b1100000001100 @
#1760
0D
0H
#1765
1D
1H
b0 u
b10 }
0b
b1 v
0g
b1 {
b11 ~
07
0=
#1770
0D
0H
#1775
1D
1H
b1 u
b11 }
b10 v
b1 ~
#1780
0D
0H
#1785
1D
1H
b10 u
b1 }
b0 v
1b
1g
b10 ~
17
1=
#1790
0D
0H
#1795
1D
1H
b0 u
b10 }
0b
b1 v
0g
b10 {
b11 ~
1f
07
0=
1B
#1800
0D
0H
#1805
1D
1H
b1 u
b11 }
b10 v
b0 ~
#1810
0D
0H
#1815
1D
1H
b10 u
b0 }
b0 v
1b
b0 c
0x
b0 d
0f
b0 {
b1 ~
17
b0 ?
b0 @
0B
1#
06
0>
0\
0[
b0 ~
#1820
0D
0H
#1825
1D
1H
1$
1"
